…
disease_freqs <- data |>
  group_by(disease) |>
  summarize(Frequency = n()) |>
  arrange(desc(Frequency))
```

``` r
print(x_freqs)
```

    ## # A tibble: 25 × 2
    ##    x_col_name        Frequency
    ##    <chr>                 <int>
    ##  1 x                        15
    ##  2 X                        14
    ##  3 centroid-0                6
    ##  4 Location_Center_X         3
    ##  5 X_centroid                3
    ##  6 centroid_x                3
    ##  7 X:X                       2
    ##  8 X_cent                    2
    ##  9 Center_X                  1
    ## 10 NominalPostion_X          1
    ## # ℹ 15 more rows

``` r
print(y_freqs)
```

    ## # A tibble: 25 × 2
    ##    y_col_name        Frequency
    ##    <chr>                 <int>
    ##  1 y                        15
    ##  2 Y                        14
    ##  3 centroid-1                6
    ##  4 Location_Center_Y         3
    ##  5 Y_centroid                3
    ##  6 centroid_y                3
    ##  7 Y:Y                       2
    ##  8 Y_cent                    2
    ##  9 Center_Y                  1
    ## 10 NominalPosition_Y         1
    ## # ℹ 15 more rows

``` r
print(celltype_freqs)
```

    ## # A tibble: 33 × 2
    ##    celltype_col_name Frequency
    ##    <chr>                 <int>
    ##  1 <NA>                     10
    ##  2 cell_type                 6
    ##  3 phenotype                 5
    ##  4 cellType                  4
    ##  5 Cell Type                 3
    ##  6 Cluster                   3
    ##  7 ClusterName               3
    ##  8 celltype                  3
    ##  9 Annotation                2
    ## 10 CellType                  2
    ## # ℹ 23 more rows

``` r
print(uniqueregion_freqs)
```

    ## # A tibble: 31 × 2
    ##    uniqueregion_col_name Frequency
    ##    <chr>                     <int>
    ##  1 unique_region                11
    ##  2 fov                           8
    ##  3 region                        7
    ##  4 separated by File             4
    ##  5 Region                        3
    ##  6 roi                           3
    ##  7 <NA>                          3
    ##  8 frame                         2
    ##  9 imageID                       2
    ## 10 FileName                      1
    ## # ℹ 21 more rows
…
