…
``` r
newmeta = read.csv("/Users/riahcul/Downloads/20241106_allmetadata.csv")
newmeta[newmeta == ""] <- NA
```

``` r
tissue_freq <- newmeta |>
  group_by(renamed_tissue) |>
  summarize(Frequency = n()) |>
  arrange(desc(Frequency))

print(tissue_freq)
```

    ## # A tibble: 37 × 2
    ##    renamed_tissue Frequency
    ##    <chr>              <int>
    ##  1 skin                1040
    ##  2 <NA>                 827
    ##  3 brain                803
    ##  4 liver                686
    ##  5 lung                 454
    ##  6 breast               289
    ##  7 uterus               216
    ##  8 colon                190
    ##  9 lymph node            85
    ## 10 stomach               45
    ## # ℹ 27 more rows
…
``` r
library(wordcloud)

word_freqs <- newmeta_update |>
  #mutate(dataset_name = str_replace(dataset_name, "^([\\d]{4}_[A-Za-z]+)_.*", "\\1")) |>
  group_by(dataset_name) |>
  summarize(Frequency = n()) |>
  arrange(desc(Frequency))

print(word_freqs)
```

    ## # A tibble: 35 × 2
    ##    dataset_name                     Frequency
    ##    <chr>                                <int>
    ##  1 2022_Ghose_CommunicationsBiology       884
    ##  2 2023_Nanostring_website_03             684
    ##  3 2023_Sorin_Nature                      416
    ##  4 2023_Karimi_Nature                     393
    ##  5 2023_Nanostring_website_02             392
    ##  6 2022_Liu_LI                            330
    ##  7 2024_Xu_ScienceAdvances_01             295
    ##  8 2022_Kim_NatureMethods_02              237
    ##  9 2023_Greenbaum_Nature_01               211
    ## 10 2021_Burlingame_PubMed                 145
    ## # ℹ 25 more rows
…
